EX11
…
a

train_inds <- sample(1:nrow(X),floor(0.7*nrow(X)))
train <- bank %>% slice(train_inds)
test <- bank %>% slice(-train_inds)

b

logistic_model <- glm(y~.,data = train,family = "binomial")
test$y_pred <- predict(logistic_model,test,type = "response")
test

## # A tibble: 12,357 x 9
##      age university housing duration contact   marital previous     y y_pred
##    <dbl> <chr>      <chr>      <dbl> <chr>     <chr>      <dbl> <dbl>  <dbl>
##  1    56 no         no           261 telephone married        0     0 0.0365
##  2    40 no         no           151 telephone married        0     0 0.0174
##  3    45 no         no           198 telephone married        0     0 0.0230
##  4    24 no         yes          380 telephone single         0     0 0.0481
##  5    25 no         yes          222 telephone single         0     0 0.0272
##  6    29 no         no           137 telephone single         0     0 0.0212
##  7    35 no         yes          146 telephone married        0     0 0.0155
##  8    50 no         yes          353 telephone married        0     0 0.0459
##  9    55 no         yes          262 telephone married        0     0 0.0361
## 10    35 yes        no            99 telephone married        0     0 0.0175
## # ... with 12,347 more rows
…
